372.12 , x , 12.86326 , y , 14.39987 , z , 12.65221 , w , 11.78267 , 

372.22 , x , 12.90262 , y , 14.53134 , z , 12.51737 , w , 11.76317 , 

372.34 , x , 13.03051 , y , 14.40998 , z , 13.01822 , w , 11.82169 , 

372.44 , x , 12.59764 , y , 13.71218 , z , 13.59612 , w , 11.87045 , 

372.56 , x , 12.31234 , y , 13.17619 , z , 14.44371 , w , 12.03626 , 

372.66 , x , 12.2238 , y , 12.43794 , z , 15.2913 , w , 11.92897 , 

372.78 , x , 12.19428 , y , 11.84127 , z , 16.26411 , w , 11.73391 , 

372.88 , x , 12.0959 , y , 11.25472 , z , 17.01538 , w , 11.36328 , 

373 , x , 11.78109 , y , 10.42545 , z , 18.55646 , w , 11.17797 , 

373.1 , x , 12.05655 , y , 9.879346 , z , 19.17289 , w , 10.25141 , 

373.22 , x , 12.24347 , y , 7.897192 , z , 22.68014 , w , 9.607688 , 

373.34 , x , 12.53861 , y , 5.55097 , z , 25.38099 , w , 9.266322 , 

373.44 , x , 12.74521 , y , 4.772266 , z , 25.06493 , w , 8.973723 , 

373.56 , x , 12.76488 , y , 4.762154 , z , 25.32352 , w , 8.954216 , 

373.66 , x , 12.69602 , y , 4.812718 , z , 25.3331 , w , 9.11027 , 

