6:  , 168.2656 , 

4:  , 168.2991 , 

5:  , 168.2991 , 

9:  , 174.7098 , 

7:  , 174.7252 , 

4:  , 188.4231 , 

6:  , 188.452 , 

3:  , 196.2757 , 

5:  , 196.2757 , 

7:  , 196.2757 , 

3:  , 203.1804 , 

2:  , 203.1804 , 

1:  , 203.1804 , 

9:  , 212.257 , 

7:  , 212.2888 , 

8:  , 212.2888 , 

3:  , 219.2171 , 

1:  , 219.2457 , 

