4:  , 168.2273 , 

5:  , 168.2273 , 

6:  , 168.2273 , 

9:  , 174.6037 , 

7:  , 174.6326 , 

4:  , 188.3079 , 

6:  , 188.3404 , 

3:  , 196.2643 , 

5:  , 196.2643 , 

7:  , 196.2643 , 

2:  , 203.1199 , 

1:  , 203.1199 , 

3:  , 203.1758 , 

7:  , 212.246 , 

8:  , 212.246 , 

9:  , 212.246 , 

1:  , 219.1591 , 

3:  , 219.1591 , 

