3:  , 234.455 , 

2:  , 234.6771 , 

1:  , 234.9877 , 

4:  , 245.204 , 

5:  , 245.4262 , 

6:  , 245.7053 , 

9:  , 256.9138 , 

5:  , 257.0026 , 

1:  , 257.0648 , 

4:  , 283.4825 , 

5:  , 283.8714 , 

6:  , 284.2721 , 

3:  , 321.6352 , 

1:  , 322.3011 , 

7:  , 357.9232 , 

9:  , 358.056 , 

